<svg width="194" height="77" viewBox="0 0 194 77" fill="none" xmlns="http://www.w3.org/2000/svg">
<path d="M7.28173 6.46407L9.34556 37.2268L5.72412 60.2404L7.28173 70.326L43.2235 66.9771L100.388 70.5985L143.066 67.7559L185.472 71.3773L194 42.6784L188.392 18.1072L190.651 0.272581L143.066 1.79125L74.765 0L7.28173 6.46407Z" fill="#30B6BB"/>
<path d="M181.578 76.6731L138.354 72.9738L95.676 75.8164H95.5981L38.5508 72.195L1.67443 75.6607L0 64.4069L3.62144 41.3544L1.47973 9.65706L70.0923 3.07617H70.1702L138.432 4.86742L187.224 3.27087L184.849 22.1958L190.495 46.8449L181.578 76.6731ZM138.393 70.8321H138.471L180.02 74.3756L188.237 46.767L182.668 22.3126L184.771 5.5294L138.432 7.00913L70.1702 5.21788L3.73826 11.5651L5.72421 41.4322V41.5491L2.14171 64.4069L3.50462 73.3242L38.5508 70.0533H38.6286L95.7149 73.6747L138.393 70.8321Z" fill="black"/>
<path d="M18.4574 37.1492C18.6132 36.4093 18.8079 35.6694 19.0804 34.9296C19.353 34.1897 19.6256 33.4888 19.9761 32.7489C20.0929 32.3985 20.2486 32.0869 20.4433 31.7754C20.5991 31.4639 20.8327 31.1913 21.0664 30.9187L22.1567 29.7505C22.5461 29.3611 22.9355 28.9717 23.3639 28.6213C23.7922 28.2708 24.2205 27.9593 24.6489 27.6867C25.1162 27.4141 25.5834 27.2194 26.0897 27.0637C26.5959 26.9468 27.1021 26.7911 27.6473 26.6743C28.2703 26.5574 28.8934 26.4406 29.5164 26.4406C30.3342 26.4017 31.1519 26.4017 31.9307 26.4796C33.021 26.5574 34.1113 26.7132 35.2017 26.9468C35.2796 26.9468 35.3185 26.9858 35.3964 26.9858C35.4743 27.0247 35.5132 27.0247 35.5911 27.0247L35.8247 27.1415L36.1752 27.2973C36.292 27.3362 36.4088 27.4141 36.5256 27.492C36.6035 27.5309 36.6814 27.5699 36.7982 27.6088C36.915 27.7256 36.954 27.8425 36.954 27.9982V28.8549C36.915 28.9328 36.8372 29.1275 36.7593 29.4001C36.6814 29.6727 36.5646 29.9452 36.4867 30.2178C36.4088 30.4904 36.3309 30.8019 36.2141 31.0356C36.0973 31.2692 36.0584 31.4639 36.0194 31.5807C35.9805 31.6975 35.9415 31.7365 35.9026 31.8922C35.8637 32.0091 35.7858 32.1259 35.669 32.2427H34.8512C34.7344 32.2427 34.6565 32.2038 34.5397 32.1648C34.3839 32.1259 34.1892 32.0869 33.9945 32.048L33.4494 31.9312C33.3325 31.8922 33.2547 31.8922 33.1378 31.8922H32.9431H32.5927C32.4369 31.8922 32.3201 31.8922 32.1643 31.8922H31.8139C31.074 31.8922 30.3731 31.9312 29.6332 32.048C29.0491 32.1259 28.465 32.3206 27.9199 32.6321C27.4136 32.9436 26.9074 33.2941 26.518 33.7614C26.0507 34.3455 25.6224 34.9296 25.3109 35.5916C24.9993 36.1367 24.7268 36.6819 24.5321 37.266C24.2984 37.8501 24.1816 38.4731 24.1816 39.0962C24.1816 39.4856 24.1816 39.836 24.2205 40.1476C24.2205 40.4201 24.2595 40.7317 24.3374 41.0042C24.3763 41.2768 24.4542 41.5494 24.571 41.822C24.6489 42.0946 24.8046 42.4061 24.9604 42.7565C25.2719 43.4185 25.6224 44.0805 26.0507 44.7036C26.4012 45.2487 26.8295 45.716 27.3358 46.0665C27.842 46.4559 28.4261 46.7284 29.0102 46.8842C29.75 47.0789 30.4899 47.1568 31.2687 47.1568C31.6971 47.1568 32.1254 47.1178 32.5148 47.04C32.9431 46.9621 33.3325 46.8063 33.7219 46.6506L34.1113 46.4559L34.4618 46.3001L35.3185 45.4434C35.5521 45.1319 35.7468 44.7814 35.7858 44.392C35.8637 44.0026 35.9026 43.6132 35.9026 43.2238C35.3964 43.2238 34.8512 43.2238 34.345 43.2628C33.8388 43.3017 33.3325 43.3017 32.8263 43.3017H31.4634C31.2687 43.1459 31.1519 42.9512 31.113 42.7176V40.8874C31.113 40.6927 31.113 40.4591 31.1519 40.2644C31.1908 40.0307 31.1908 39.7582 31.2298 39.5245C31.2687 39.2909 31.2687 39.0962 31.3077 38.9404C31.3466 38.7847 31.3466 38.7068 31.3466 38.7068L31.6192 38.551C32.1254 38.551 32.5537 38.5121 32.9821 38.4731C33.3715 38.4342 33.8388 38.4342 34.345 38.3952L35.8637 38.3174L37.3044 38.2395L38.5116 38.1616H39.6019C39.7966 38.2005 39.9913 38.2784 40.0692 38.4342C40.225 38.6289 40.3418 38.8236 40.4197 39.0572C40.4975 39.2909 40.5754 39.5245 40.6144 39.7971C40.6533 40.0307 40.6922 40.2254 40.7312 40.3812C40.7701 40.537 40.7701 40.6148 40.8091 40.8485C40.848 41.0821 40.848 41.1989 40.848 41.2379V42.0946C40.848 43.1849 40.6922 44.2752 40.4197 45.3266C40.1081 46.378 39.6798 47.4294 39.1346 48.4029C38.901 48.7923 38.6284 49.1817 38.3169 49.4932C37.9664 49.8437 37.577 50.1941 37.1876 50.4667C36.7593 50.7782 36.3309 51.0508 35.8637 51.2455C35.4353 51.4402 34.9291 51.557 34.4618 51.557C32.7095 51.7128 30.9572 51.7517 29.2438 51.596C28.3482 51.5181 27.4526 51.3623 26.5959 51.0508L26.3233 50.934C26.1676 50.895 26.0118 50.8172 25.8171 50.7393C25.6224 50.6614 25.4666 50.5835 25.2719 50.5056C25.0772 50.4278 24.9604 50.3888 24.8825 50.3499C24.571 50.2331 24.2984 50.0773 24.0258 49.8826C23.7533 49.6879 23.5196 49.4932 23.286 49.2596C23.247 49.2206 23.0913 49.0649 22.8576 48.8702L22.1567 48.2082C21.9231 47.9745 21.6894 47.7409 21.4558 47.4683C21.2221 47.1957 21.0664 47.04 20.9496 46.9231C20.8717 46.8453 20.8327 46.7674 20.7549 46.6895C20.7159 46.6116 20.638 46.5337 20.5602 46.4559C20.4823 46.339 20.4044 46.1833 20.3265 46.0275C20.2097 45.7939 20.0929 45.5602 19.9761 45.2877C19.8592 45.0151 19.7035 44.7814 19.5867 44.5089C19.4698 44.2363 19.353 44.0805 19.3141 43.9248C18.9247 43.146 18.691 42.3282 18.5742 41.4715C18.4963 40.6148 18.4185 39.7971 18.4185 38.9404L18.4574 37.1492Z" fill="black"/>
<path d="M44.197 51.0504C44.236 47.1563 44.236 43.2623 44.1581 39.4073C44.0802 35.5522 44.0413 31.6582 44.0802 27.7252V25.3888L44.197 25.272H47.9353H48.2079L48.7141 25.233C48.9088 25.233 49.0646 25.1941 49.1814 25.1941C49.2593 25.1941 49.3761 25.1552 49.454 25.1162H49.7655C50.1159 25.1162 50.4275 25.3109 50.5832 25.6224C50.739 25.895 50.8169 26.2455 50.8558 26.557V26.6349C50.8558 26.6738 50.8558 26.7517 50.8169 26.7906C50.8169 26.8685 50.7779 26.9853 50.739 27.1022C50.7 27.219 50.7 27.2969 50.7 27.4137C50.7 27.5305 50.7 27.5694 50.7 27.6084V30.3731C50.7 30.5289 50.7 30.8404 50.739 31.3077C50.7779 31.775 50.7779 32.3201 50.8169 32.9432C50.8558 33.5662 50.8947 34.2282 50.8947 34.9291C50.8947 35.6301 50.9726 36.292 50.9726 36.9151C50.9726 37.5381 51.0116 38.0833 51.0505 38.5506C51.0895 39.0179 51.0894 39.3294 51.0894 39.4851C51.0894 39.563 51.0894 39.7967 51.0894 40.225C51.0894 40.6533 51.0894 41.1596 51.0894 41.7437V47.5847C51.0894 48.1688 51.0894 48.714 51.0894 49.2202C51.0894 49.7264 51.0894 50.0769 51.0894 50.2716C51.0116 50.5831 50.8169 50.8557 50.5832 51.0893C50.3496 51.284 50.077 51.4398 49.8044 51.5176C49.4929 51.6345 49.1814 51.6734 48.8699 51.7123L47.9353 51.7902H47.468L46.6113 51.8292C46.2998 51.8292 45.9883 51.8681 45.7157 51.8681C45.4431 51.8681 45.2095 51.907 45.0537 51.907H44.5086C44.4307 51.907 44.3917 51.8681 44.3528 51.7902C44.3139 51.6734 44.2749 51.5566 44.2749 51.4398C44.2749 51.284 44.236 51.1672 44.197 51.0504Z" fill="black"/>
<path d="M95.8318 50.6612C93.2617 50.6223 90.6917 50.6612 88.1216 50.7002C85.5516 50.7391 82.9815 50.778 80.3725 50.778H78.8149L78.7371 50.7002V48.2469C78.7371 48.2469 78.7371 48.1691 78.7371 48.0912C78.7371 48.0133 78.7371 47.8965 78.7371 47.7407C78.7371 47.6239 78.7371 47.546 78.6981 47.4292C78.6981 47.3513 78.6981 47.3124 78.6592 47.2345V47.0398C78.6592 46.8061 78.776 46.6114 79.0096 46.4946C79.2043 46.3778 79.438 46.3389 79.6327 46.3389H79.7106H79.8274C79.9053 46.3389 79.9442 46.3778 80.0221 46.3778C80.1 46.3778 80.1389 46.4167 80.2168 46.4167H80.3336H82.1638H82.7868L83.8772 46.3778L85.2011 46.2999L86.5251 46.222L87.6154 46.1831H88.2385H88.7447C89.0173 46.1831 89.3677 46.1831 89.7571 46.1831H93.6122C94.0016 46.1831 94.3521 46.1831 94.7025 46.1831H95.4035C95.5982 46.222 95.7929 46.3389 95.9486 46.5336C96.0654 46.6893 96.1823 46.8451 96.2212 47.0398C96.2991 47.2345 96.338 47.4292 96.338 47.6628C96.377 47.8965 96.377 48.0912 96.377 48.2859C96.377 48.3248 96.377 48.4416 96.377 48.5974C96.377 48.7532 96.377 48.9479 96.377 49.1815C96.377 49.4151 96.377 49.5709 96.4159 49.7656C96.4548 49.9603 96.4548 50.1161 96.4548 50.1939V50.5444C96.4548 50.5833 96.4159 50.6223 96.377 50.6223C96.338 50.6223 96.2601 50.6612 96.1433 50.6612C95.9876 50.6223 95.9097 50.6612 95.8318 50.6612Z" fill="black"/>
<path d="M57.2031 51.1674C57.2031 50.8948 57.2031 50.4276 57.2031 49.8435C57.2031 49.2594 57.1642 48.5584 57.1642 47.7796C57.1642 47.0008 57.1252 46.222 57.0863 45.3653C57.0473 44.5087 57.0473 43.7299 57.0473 42.9511C57.0473 42.1722 57.0084 41.5103 57.0084 40.8872C57.0084 40.2642 56.9695 39.8358 56.9305 39.5633C56.9305 39.4464 56.8916 39.096 56.8526 38.5898C56.8137 38.0835 56.7358 37.5384 56.6969 36.9153C56.6579 36.2923 56.619 35.7471 56.5801 35.2409C56.5411 34.7347 56.5022 34.3842 56.5022 34.2674C56.4243 34.1895 56.3464 33.9948 56.3464 33.6444C56.3464 33.2939 56.3075 32.8655 56.3464 32.3983C56.3853 31.931 56.3853 31.4637 56.4243 30.9575C56.4632 30.4513 56.4632 30.1008 56.5022 29.8282V29.0494C56.5022 28.6989 56.5022 28.3485 56.5022 27.9591C56.5022 27.5697 56.5022 27.2582 56.5022 26.9466V26.3625L56.619 25.3112L56.7748 25.1554H57.281C57.5536 25.1554 57.7872 25.1554 58.0598 25.1554C58.3324 25.1554 58.6049 25.1554 58.8386 25.1554H59.3837C59.4616 25.1554 59.6563 25.1554 59.9289 25.1165C60.1236 25.1165 60.3183 25.0775 60.4741 25.0386H65.8478H66.1593L66.6656 25.0775C66.8603 25.0775 67.016 25.1165 67.1718 25.1165C67.2886 25.1165 67.4054 25.1554 67.5222 25.1554C68.4179 25.2333 69.2745 25.5837 69.9755 26.09C70.6764 26.5962 71.2994 27.2192 71.7667 27.9591C72.234 28.699 72.6234 29.5167 72.857 30.3734C73.0907 31.2301 73.2464 32.0867 73.2464 32.9434C73.2464 33.6054 73.1686 34.2674 72.9739 34.9294C72.7792 35.6303 72.5066 36.2923 72.1561 36.9543C71.8057 37.5773 71.3773 38.1614 70.8711 38.6676C70.4038 39.1739 69.8197 39.5243 69.1967 39.7969V39.9137C69.2745 39.9916 69.3135 40.1084 69.3524 40.2252C69.3914 40.3421 69.4303 40.4199 69.4692 40.5368C69.6639 40.8483 69.8976 41.1598 70.1312 41.5492C70.3649 41.8997 70.5985 42.2501 70.8711 42.5617C71.2605 43.0679 71.572 43.613 71.8057 44.1582C72.0393 44.7423 72.3508 45.3264 72.6234 45.8716C72.6623 45.9105 72.7402 46.0663 72.896 46.261C72.9739 46.4167 73.0907 46.5335 73.2075 46.6893C73.2464 46.7672 73.3243 46.8451 73.4022 46.9229L73.5969 47.1176C73.5969 47.1955 73.6358 47.2734 73.6748 47.3124C73.7137 47.3902 73.7137 47.4681 73.7527 47.5071C73.9474 47.9354 74.181 48.4416 74.4536 49.0257C74.7262 49.5319 74.843 50.0771 74.8819 50.6223V50.6612L74.5704 50.9727C74.4146 50.9727 74.1031 51.0117 73.7137 51.0506C73.3243 51.0896 72.857 51.1285 72.4287 51.1674C72.0004 51.2064 71.5331 51.2453 71.1437 51.2842C70.7543 51.3232 70.4427 51.3232 70.287 51.3621C70.1702 51.3621 70.0534 51.4011 69.9365 51.44C69.8197 51.479 69.7029 51.479 69.625 51.5179H69.3135C69.1188 51.5179 68.963 51.44 68.8462 51.2842C68.7683 51.1285 68.6515 50.9727 68.5347 50.817L68.1453 50.1939C67.9506 49.8824 67.8338 49.6877 67.7948 49.6098L64.7575 43.5352C64.5238 43.0679 64.2513 42.6395 63.9787 42.2112C63.7061 41.7828 63.3556 41.3934 62.9662 41.043V41.2377C62.9662 41.705 63.0052 42.1333 63.0441 42.5617C63.122 42.99 63.1609 43.4573 63.2388 43.8856C63.2388 44.1971 63.2778 44.5087 63.3167 44.8591C63.3167 45.2096 63.3946 45.5211 63.5114 45.8326V51.2064C63.5114 51.4011 63.3946 51.5958 63.1999 51.6347C63.0441 51.7126 62.8494 51.7515 62.6547 51.7905C62.1485 51.8684 61.7591 51.9073 61.4086 51.9073C61.0582 51.9073 60.6688 51.9073 60.1625 51.9073H59.5784C59.5006 51.9073 59.4227 51.9073 59.3448 51.8683L58.9554 51.7905L58.5271 51.7126C58.3713 51.6737 58.2545 51.6737 58.2155 51.6347L57.7872 51.5179C57.6704 51.479 57.5536 51.44 57.3978 51.4011C57.3589 51.3621 57.3199 51.3232 57.3199 51.2453C57.242 51.2843 57.242 51.2064 57.2031 51.1674ZM62.8494 30.7238C62.8494 30.8017 62.8884 30.8407 62.9273 30.9185C62.9662 30.9964 62.9662 31.0354 63.0052 31.1132V31.931C63.0052 32.1257 63.0052 32.3593 63.0441 32.6708C63.0831 32.9824 63.0831 33.2549 63.0831 33.5275C63.0831 33.8001 63.122 34.1506 63.122 34.54L63.2778 34.8126C63.3556 34.8515 63.4335 34.8515 63.5503 34.8515H64.0176C64.7185 34.8515 65.4195 34.7736 66.1204 34.5789C66.7824 34.3063 67.4054 33.9169 67.8727 33.3718C67.9895 33.2549 68.0285 33.1381 68.0285 32.9824V32.554C68.0285 32.5151 68.0285 32.4761 68.0285 32.4372C68.0285 32.3983 68.0285 32.3593 68.0285 32.3204V32.1257C67.9506 31.8531 67.7948 31.6195 67.5612 31.4637C67.2497 31.2301 66.8992 31.0354 66.5487 30.8796C66.1593 30.7238 65.7699 30.607 65.3805 30.4902C65.1079 30.4123 64.7964 30.3344 64.5238 30.3344C64.446 30.3344 64.3291 30.3344 64.1734 30.3344C64.0176 30.3344 63.8229 30.3734 63.6672 30.3734C63.5114 30.4123 63.3556 30.4123 63.1999 30.4513C63.0441 30.4902 63.0052 30.5681 63.0052 30.607L62.8494 30.7238Z" fill="black"/>
<path d="M77.5688 33.1768C77.5688 32.8264 77.5689 32.4759 77.6078 32.1644C77.6078 31.8139 77.6857 31.5024 77.8025 31.1909C77.9972 30.49 78.3087 29.828 78.7371 29.2049C79.1654 28.5819 79.5937 27.9978 80.1 27.4137C80.2947 27.18 80.5283 26.9853 80.7619 26.7906C80.9956 26.6349 81.2682 26.4402 81.5797 26.2455C82.2417 25.7782 82.9815 25.4277 83.7214 25.1162C84.5002 24.8047 85.279 24.6489 86.0967 24.6489C86.9145 24.6489 87.7712 24.7268 88.5889 24.8436C89.4067 24.9994 90.2244 25.272 90.9253 25.7003C91.0032 25.7393 91.0811 25.8171 91.159 25.895C91.2758 26.0118 91.3537 26.0897 91.3926 26.0897C91.8988 26.4402 92.3661 26.7906 92.8723 27.1022C93.3786 27.4137 93.8069 27.842 94.1963 28.2704C94.1963 28.2704 94.2352 28.3093 94.2742 28.3872C94.3131 28.4651 94.391 28.5429 94.4689 28.6208L94.7025 28.8934C94.7804 28.9713 94.8193 29.0492 94.8583 29.127C94.8972 29.2049 94.8972 29.2049 94.9751 29.2828C95.053 29.3607 95.053 29.3996 95.0919 29.4386L95.2477 29.5943C95.2866 29.6333 95.3645 29.7111 95.4034 29.7501C95.4034 29.7501 95.4034 29.828 95.4034 29.9448C95.4034 30.0616 95.4034 30.1395 95.4034 30.1395C95.4424 30.2563 95.4424 30.3342 95.4813 30.4121C95.5592 30.5678 95.5981 30.6847 95.5981 30.6847C95.5981 30.7236 95.5981 30.7625 95.5981 30.8015C95.5981 30.8794 95.6371 30.9572 95.6371 31.0351C95.6371 31.113 95.676 31.1909 95.715 31.2688C95.715 31.3077 95.7539 31.3466 95.7539 31.3856L95.8707 31.5803C95.9097 31.6582 95.9486 31.6971 95.9486 31.775V32.2423C95.9486 32.2812 95.9486 32.3201 95.9486 32.398C95.9486 32.4759 95.9486 32.5538 95.9875 32.6317C96.0265 32.7095 96.0265 32.7874 96.0265 32.8653C96.0265 32.9432 96.0265 32.9821 96.0265 32.9821C96.0265 32.9821 96.0265 33.06 96.0265 33.1768C96.0265 33.2936 96.0265 33.4105 96.0265 33.5662C96.0265 33.722 96.0265 33.8777 96.0265 33.9946C96.0265 34.1114 96.0265 34.2671 96.0265 34.345C96.0265 34.9681 95.9875 35.6301 95.9486 36.3699C95.9097 37.0319 95.7539 37.6939 95.5203 38.278C95.4813 38.3169 95.4424 38.3948 95.4034 38.4727C95.3645 38.5506 95.3256 38.6674 95.2477 38.7842C95.2087 38.901 95.1698 38.9789 95.0919 39.0957C95.053 39.1736 95.014 39.2515 94.9751 39.2904C94.9362 39.3294 94.8972 39.4073 94.8583 39.4462C94.8193 39.4851 94.7804 39.563 94.7415 39.6019C94.391 40.0303 94.0016 40.4586 93.6122 40.887C93.2228 41.3153 92.7945 41.7047 92.4051 42.0941C92.1325 42.3667 91.8209 42.5614 91.4705 42.7561C91.12 42.9508 90.8085 43.1066 90.497 43.3013C89.9908 43.5738 89.4067 43.7296 88.8226 43.8075C88.2385 43.8854 87.6933 43.8854 87.1092 43.9243C86.1746 43.9243 85.2011 43.8075 84.3055 43.5738C83.4099 43.3402 82.5142 42.9508 81.7354 42.4446C81.6576 42.4056 81.5797 42.3667 81.5018 42.2888C81.385 42.2499 81.3071 42.172 81.2292 42.0941C81.1513 42.0162 81.0345 41.9773 80.9956 41.9384C80.9566 41.8994 80.9177 41.8605 80.8788 41.8605C80.8009 41.8215 80.723 41.7437 80.6451 41.6658C80.4894 41.549 80.3336 41.3932 80.1389 41.1985C79.9442 41.0038 79.7495 40.8091 79.5159 40.6533L79.0096 40.1861C79.0096 40.1861 79.0096 40.1471 78.9707 40.1082L78.9318 40.0692C78.8928 39.9914 78.8539 39.8745 78.8539 39.7577C78.8149 39.6409 78.8149 39.563 78.776 39.4851C78.5813 39.0568 78.3866 38.6284 78.2308 38.2001C78.0361 37.7718 77.8804 37.3434 77.8025 36.8761C77.8025 36.8761 77.8025 36.7983 77.8025 36.6814C77.8025 36.5646 77.8025 36.5257 77.8025 36.4867C77.7246 35.9026 77.6857 35.3575 77.6467 34.8123C77.6078 34.2671 77.5688 33.722 77.5688 33.1768ZM81.8523 35.8248C81.8912 35.8637 81.9301 35.9416 81.9301 35.9805C81.9691 36.0195 82.008 36.0584 82.008 36.1363C82.047 36.1363 82.047 36.2142 82.0859 36.292C82.0859 36.331 82.1248 36.4089 82.1248 36.4478L82.2417 36.6814C82.2806 36.7983 82.3585 36.954 82.3974 37.0708C82.4364 37.1877 82.5143 37.3434 82.5921 37.4992C82.67 37.6549 82.709 37.7328 82.7479 37.8107C82.9426 38.239 83.1762 38.6674 83.4878 39.0178C83.7603 39.2904 84.0719 39.5241 84.4223 39.6798C84.8117 39.8356 85.2011 39.9135 85.5905 39.9524C86.0189 39.9914 86.4861 39.9914 86.9924 39.9914C87.8101 39.9914 88.6668 39.8745 89.4067 39.563C90.1855 39.2515 90.8474 38.7063 91.3537 38.0443C91.3537 38.0054 91.3926 37.9665 91.4316 37.8886C91.4705 37.8496 91.4705 37.8107 91.5094 37.7328C91.7041 37.2655 91.782 36.7983 91.821 36.292C91.821 35.8248 91.821 35.3185 91.821 34.8123V34.5787C91.821 34.4618 91.821 34.345 91.821 34.1893C91.821 34.0335 91.821 33.9167 91.821 33.7999V33.5273C91.782 33.3326 91.7431 33.0989 91.6652 32.7485C91.5873 32.398 91.4705 32.0476 91.3537 31.6971C91.2368 31.3466 91.0811 31.0351 90.9253 30.6847C90.8085 30.451 90.6527 30.2174 90.458 30.0616C90.4191 30.0616 90.3412 30.0616 90.3023 30.0227C90.2244 29.9837 90.1465 29.9837 90.1465 29.9837C90.1076 29.9448 90.0686 29.8669 90.0686 29.828C90.0297 29.789 89.9908 29.7111 89.9518 29.6722C89.9129 29.6333 89.9129 29.5943 89.8739 29.5554C89.835 29.5164 89.7961 29.4775 89.7571 29.4775C89.3288 29.2049 88.8226 29.0102 88.3553 28.8934C87.1871 28.5819 85.9799 28.6208 84.8507 29.0102C84.2666 29.2049 83.7214 29.5164 83.2152 29.9058C82.7479 30.2953 82.3585 30.8015 82.0859 31.3466C81.8133 31.9697 81.6576 32.6317 81.6576 33.2936C81.6576 33.722 81.6965 34.1503 81.7354 34.6176C81.7354 34.9291 81.8133 35.3575 81.8523 35.8248Z" fill="black"/>
<path d="M101.517 46.3779C101.517 46.3 101.517 46.2222 101.517 46.0664C101.517 45.9106 101.556 45.7938 101.556 45.6381C101.556 45.4823 101.595 45.3655 101.595 45.2487C101.595 45.1318 101.595 45.054 101.595 45.015C101.595 44.8203 101.634 44.6646 101.712 44.5088C101.79 44.392 101.867 44.2751 101.984 44.1973C102.101 44.1194 102.218 44.0415 102.335 43.9636C102.49 43.8857 102.646 43.7689 102.802 43.691C102.841 43.6521 102.919 43.5742 103.075 43.4574C103.23 43.3406 103.308 43.2627 103.347 43.2238C104.515 42.2113 105.606 41.0821 106.618 39.9138C107.592 38.7456 108.565 37.5385 109.617 36.2924C110.045 35.7473 110.395 35.1631 110.707 34.5401C111.018 33.956 111.174 33.2551 111.174 32.5931C111.174 32.3205 111.135 32.0869 111.096 31.8143C111.057 31.5417 110.94 31.3081 110.824 31.1134C110.707 30.9187 110.512 30.724 110.317 30.6071C110.084 30.4514 109.811 30.3735 109.539 30.4124C109.227 30.4124 108.955 30.4903 108.682 30.6071C108.409 30.724 108.137 30.9187 107.942 31.1134C107.708 31.3081 107.475 31.5417 107.28 31.8143C107.085 32.0479 106.93 32.2816 106.813 32.5542L106.696 32.7489C106.657 32.8657 106.579 32.9825 106.501 33.0993C106.423 33.2161 106.384 33.333 106.307 33.4498C106.268 33.5277 106.229 33.5666 106.19 33.6445C106.073 33.8392 105.878 33.956 105.645 34.0339C105.372 34.1118 105.099 34.1896 104.827 34.1896C104.554 34.2286 104.243 34.2286 103.97 34.2286H103.269C102.919 34.2286 102.607 34.2286 102.335 34.2286C102.023 34.2286 101.712 34.1896 101.4 34.1118C101.244 34.0728 101.167 33.9949 101.167 33.8781C101.167 33.7613 101.167 33.6834 101.167 33.5666C101.167 33.2161 101.205 32.8657 101.244 32.4763C101.283 32.1258 101.361 31.8143 101.478 31.5028C101.556 31.3081 101.634 31.1523 101.712 31.0355C101.79 30.9187 101.828 30.8019 101.906 30.685C101.945 30.5682 102.023 30.4903 102.062 30.4124C102.529 29.5947 103.152 28.8548 103.892 28.3097C104.632 27.7645 105.45 27.2583 106.307 26.83C106.462 26.7521 106.618 26.6742 106.774 26.6353C106.93 26.5574 107.124 26.5184 107.319 26.4795H108.643C109.305 26.4795 109.967 26.5184 110.629 26.5963C111.252 26.6742 111.875 26.8689 112.498 27.1025C113.082 27.3362 113.627 27.6866 114.095 28.076C114.601 28.5433 114.99 29.0885 115.263 29.7115C115.302 29.7505 115.341 29.8283 115.341 29.8673C115.38 29.9452 115.419 30.062 115.458 30.1788L115.574 30.5293C115.613 30.6072 115.652 30.685 115.691 30.7629C115.808 31.0744 115.886 31.386 115.886 31.6975C115.886 32.009 115.925 32.3205 115.925 32.671C115.925 33.2551 115.847 33.8392 115.691 34.3843C115.535 34.9684 115.341 35.5136 115.068 36.0198C114.796 36.565 114.523 37.0712 114.211 37.5774C113.9 38.0837 113.549 38.5509 113.238 39.0182C112.693 39.797 112.148 40.5758 111.641 41.3546C111.135 42.1334 110.551 42.8733 109.928 43.6132C110.084 43.6521 110.24 43.6521 110.395 43.6521L110.863 43.691C111.057 43.73 111.252 43.73 111.408 43.73H112.381C112.732 43.73 113.043 43.73 113.355 43.73H113.939H114.134C114.25 43.73 114.328 43.73 114.484 43.7689L114.835 43.8079C114.912 43.8079 114.99 43.8468 115.068 43.8468C115.38 43.8468 115.652 44.0026 115.808 44.2751C115.964 44.5477 116.042 44.8593 116.081 45.1708C116.081 45.5212 116.12 45.8717 116.158 46.339C116.197 46.8063 116.197 47.1957 116.197 47.5851C116.197 47.7408 116.197 47.8966 116.12 48.0523C116.042 48.2081 115.964 48.3249 115.847 48.4028C115.652 48.4028 115.302 48.4028 114.835 48.4417C114.367 48.4807 113.822 48.4807 113.277 48.4807L111.719 48.5196H110.707H109.188H107.319L105.411 48.4807L103.698 48.4417C103.191 48.4417 102.607 48.4417 101.984 48.4028L101.79 48.286C101.712 48.0134 101.673 47.7798 101.634 47.5851C101.595 47.3904 101.556 47.1957 101.517 47.001C101.478 46.8063 101.439 46.6116 101.439 46.4947V46.2611L101.517 46.3779Z" fill="black"/>
<path d="M120.481 35.825C120.52 34.9683 120.598 34.0727 120.792 33.216C120.987 32.3593 121.299 31.5416 121.688 30.7628C122.078 29.984 122.584 29.322 123.168 28.699C123.791 28.0759 124.492 27.5697 125.31 27.1803C125.855 26.9467 126.4 26.713 126.906 26.5572C127.451 26.3625 128.035 26.2847 128.619 26.2847C129.165 26.2847 129.671 26.3625 130.177 26.4794C130.683 26.6351 131.19 26.8298 131.657 27.0635C131.813 27.1414 131.968 27.2192 132.124 27.2971L132.708 27.6086C132.903 27.7255 133.059 27.8033 133.214 27.8812C133.292 27.9202 133.37 27.998 133.448 28.037C133.682 28.2317 133.915 28.4653 134.11 28.699C134.538 29.2831 134.967 29.9061 135.317 30.5291C135.668 31.1522 135.901 31.8531 136.018 32.593C136.018 32.7487 136.057 32.9824 136.096 33.2939C136.135 33.6054 136.135 33.9169 136.174 34.2285C136.213 34.54 136.252 34.8515 136.291 35.0851C136.33 35.3188 136.33 35.5135 136.33 35.5914V39.719C136.33 39.758 136.33 39.8748 136.291 40.0695C136.252 40.2642 136.213 40.4589 136.174 40.6925C136.135 40.9262 136.096 41.1598 136.096 41.3935C136.096 41.6271 136.057 41.8218 136.018 41.9386C135.862 42.7564 135.59 43.5352 135.161 44.275C134.733 44.9759 134.305 45.6769 133.799 46.3778C133.604 46.6504 133.331 46.884 133.059 47.0398C132.786 47.2345 132.513 47.3902 132.241 47.546C132.202 47.5849 132.085 47.6239 131.968 47.7018L131.618 47.8965L131.306 48.0522C131.267 48.0912 131.19 48.1301 131.151 48.1301C130.995 48.169 130.839 48.2469 130.683 48.2859C130.566 48.3248 130.411 48.3637 130.255 48.3637H126.672C126.244 48.3637 125.816 48.2469 125.426 48.0133C124.998 47.7796 124.648 47.5849 124.336 47.3902C123.596 46.884 122.973 46.261 122.428 45.5211C121.922 44.8202 121.532 44.0414 121.182 43.2236C120.987 42.8342 120.87 42.367 120.792 41.9386C120.715 41.4713 120.637 41.0041 120.598 40.5368C120.559 40.0695 120.52 39.5633 120.52 39.096C120.52 38.6287 120.52 38.1614 120.52 37.7331L120.481 35.825ZM125.31 36.8375C125.31 36.9153 125.31 37.0322 125.31 37.2269C125.31 37.4216 125.31 37.6163 125.348 37.811C125.387 38.0057 125.348 38.2004 125.387 38.3951C125.426 38.5898 125.387 38.7066 125.387 38.7845C125.426 38.9013 125.465 39.057 125.465 39.1739L125.582 39.9137C125.621 40.1863 125.66 40.4589 125.699 40.7315C125.738 41.0041 125.777 41.1988 125.816 41.3545C125.894 41.8218 126.049 42.2891 126.244 42.7174C126.439 43.1458 126.789 43.5352 127.179 43.7688C127.334 43.8856 127.529 44.0024 127.685 44.1193C127.88 44.1971 128.074 44.275 128.269 44.2361C128.581 44.2361 128.892 44.1582 129.204 44.0414C129.515 43.9246 129.788 43.7299 130.06 43.5352C130.333 43.3405 130.605 43.1068 130.839 42.8732C131.073 42.6395 131.306 42.4059 131.501 42.1723C131.501 42.1723 131.54 42.1333 131.579 42.0944C131.579 42.0554 131.618 42.0165 131.618 41.9776C131.774 41.5492 131.851 41.0819 131.968 40.6147C132.046 40.1474 132.085 39.6801 132.085 39.2517C132.085 38.1225 132.046 37.0322 131.968 35.9418C131.89 34.8515 131.696 33.7612 131.423 32.7098C131.384 32.6319 131.384 32.593 131.345 32.5151C131.345 32.4762 131.306 32.3983 131.267 32.3593C131.112 32.0868 130.917 31.8142 130.683 31.5416C130.489 31.3469 130.255 31.0743 129.943 30.7628L129.827 30.7238C129.788 30.6849 129.749 30.6849 129.71 30.6849C129.554 30.646 129.398 30.607 129.242 30.5681C129.165 30.5681 128.97 30.5681 128.697 30.5681C128.425 30.5681 128.152 30.607 127.88 30.6849C127.607 30.7628 127.373 30.9185 127.218 31.1522C127.14 31.2301 127.062 31.3469 126.984 31.4248C126.867 31.5805 126.789 31.7363 126.672 31.8921C126.556 32.0478 126.439 32.2425 126.322 32.3593L126.088 32.6709C125.972 32.8266 125.894 33.0213 125.816 33.216C125.738 33.4497 125.699 33.6444 125.621 33.878C125.543 34.1116 125.504 34.3453 125.465 34.5789C125.426 34.8126 125.426 35.0073 125.387 35.202C125.387 35.2798 125.387 35.3967 125.387 35.5524C125.387 35.7082 125.387 35.8639 125.348 36.0197C125.31 36.1755 125.348 36.3312 125.31 36.487C125.271 36.6428 125.31 36.7985 125.31 36.8375Z" fill="black"/>
<path d="M140.691 46.3779C140.691 46.3 140.691 46.2222 140.691 46.0664C140.691 45.9106 140.73 45.7938 140.73 45.6381C140.73 45.4823 140.769 45.3655 140.769 45.2487C140.769 45.1318 140.769 45.054 140.769 45.015C140.769 44.8203 140.808 44.6646 140.886 44.5088C140.964 44.392 141.041 44.2751 141.158 44.1973C141.275 44.1194 141.392 44.0415 141.509 43.9636C141.665 43.8857 141.82 43.7689 141.976 43.691C142.015 43.6521 142.093 43.5742 142.249 43.4574C142.404 43.3406 142.482 43.2627 142.521 43.2238C143.689 42.2113 144.78 41.0821 145.792 39.9138C146.766 38.7456 147.739 37.5385 148.791 36.2924C149.219 35.7473 149.569 35.1631 149.881 34.5401C150.192 33.956 150.348 33.2551 150.348 32.5931C150.348 32.3205 150.309 32.0869 150.27 31.8143C150.231 31.5417 150.115 31.3081 149.998 31.1134C149.881 30.9187 149.686 30.724 149.492 30.6071C149.258 30.4514 148.985 30.3735 148.713 30.4124C148.401 30.4124 148.129 30.4903 147.856 30.6071C147.583 30.724 147.311 30.9187 147.116 31.1134C146.883 31.3081 146.649 31.5417 146.454 31.8143C146.259 32.0479 146.104 32.2816 145.987 32.5542L145.87 32.7489C145.831 32.8657 145.753 32.9825 145.675 33.0993C145.597 33.2161 145.559 33.333 145.481 33.4498C145.442 33.5277 145.403 33.5666 145.364 33.6445C145.247 33.8392 145.052 33.956 144.819 34.0339C144.546 34.1118 144.274 34.1896 144.001 34.1896C143.728 34.2286 143.417 34.2286 143.144 34.2286H142.521C142.171 34.2286 141.859 34.2286 141.587 34.2286C141.275 34.2286 140.964 34.1896 140.652 34.1118C140.496 34.0728 140.457 33.9949 140.418 33.8781C140.418 33.7613 140.418 33.6834 140.418 33.5666C140.418 33.2161 140.457 32.8657 140.496 32.4763C140.535 32.1258 140.613 31.8143 140.73 31.5028C140.808 31.3081 140.886 31.1523 140.964 31.0355C141.041 30.9187 141.08 30.8019 141.158 30.685C141.197 30.5682 141.275 30.4903 141.314 30.4124C141.742 29.5947 142.365 28.8548 143.144 28.3097C143.884 27.7645 144.702 27.2583 145.559 26.83C145.714 26.7521 145.87 26.6742 146.026 26.6353C146.182 26.5574 146.376 26.5184 146.571 26.4795H147.895C148.557 26.4795 149.219 26.5184 149.881 26.5963C150.504 26.6742 151.166 26.83 151.75 27.1025C152.334 27.3362 152.879 27.6866 153.347 28.076C153.853 28.5433 154.242 29.0885 154.515 29.7115C154.554 29.7505 154.593 29.8283 154.593 29.8673C154.632 29.9452 154.671 30.062 154.709 30.1788L154.826 30.5293C154.865 30.6072 154.904 30.685 154.943 30.7629C155.06 31.0744 155.138 31.386 155.138 31.6975C155.138 32.009 155.177 32.3205 155.177 32.671C155.177 33.2551 155.099 33.8392 154.943 34.3843C154.787 34.9684 154.593 35.5136 154.32 36.0198C154.048 36.565 153.775 37.0712 153.463 37.5774C153.152 38.0837 152.801 38.5509 152.49 39.0182C151.945 39.797 151.4 40.5758 150.854 41.3546C150.309 42.1334 149.764 42.8733 149.141 43.6132C149.297 43.6521 149.453 43.6521 149.608 43.6521L150.076 43.691C150.27 43.73 150.465 43.73 150.621 43.73H151.594C151.945 43.73 152.256 43.73 152.568 43.73H153.152H153.347C153.463 43.73 153.541 43.73 153.697 43.7689L154.048 43.8079C154.125 43.8079 154.203 43.8468 154.281 43.8468C154.593 43.8468 154.865 44.0026 155.021 44.2751C155.177 44.5477 155.255 44.8593 155.294 45.1708C155.294 45.5212 155.333 45.8717 155.371 46.339C155.41 46.8063 155.41 47.1957 155.41 47.5851C155.41 47.7408 155.41 47.8966 155.333 48.0523C155.255 48.2081 155.177 48.3249 155.06 48.4028C154.865 48.4028 154.515 48.4028 154.048 48.4417C153.58 48.4807 153.035 48.4807 152.49 48.4807L150.932 48.5196H149.92H148.401H146.532L144.624 48.4807L142.911 48.4028C142.404 48.4028 141.82 48.4028 141.197 48.3639L141.003 48.247C140.925 47.9745 140.886 47.7408 140.847 47.5461C140.808 47.3514 140.769 47.1567 140.73 46.962C140.691 46.7673 140.652 46.5726 140.652 46.4558L140.691 46.3779Z" fill="black"/>
<path d="M159.694 35.825C159.733 34.9683 159.811 34.0727 160.005 33.216C160.2 32.3593 160.512 31.5416 160.901 30.7628C161.29 29.984 161.797 29.322 162.381 28.699C163.004 28.0759 163.705 27.5697 164.522 27.1803C165.068 26.9467 165.613 26.713 166.119 26.5572C166.664 26.3625 167.248 26.2847 167.793 26.2847C168.339 26.2847 168.845 26.3625 169.351 26.4794C169.857 26.6351 170.363 26.8298 170.831 27.0635C170.986 27.1414 171.142 27.2192 171.298 27.2971C171.493 27.4139 171.687 27.5308 171.882 27.6086C172.077 27.7255 172.233 27.8033 172.388 27.8812C172.544 27.9591 172.622 28.037 172.622 28.037C172.856 28.2317 173.089 28.4653 173.284 28.699C173.712 29.2831 174.141 29.9061 174.491 30.5291C174.842 31.1522 175.075 31.8531 175.192 32.593C175.192 32.7487 175.231 32.9824 175.27 33.2939C175.309 33.6054 175.309 33.9169 175.348 34.2285C175.387 34.54 175.426 34.8515 175.465 35.0851C175.504 35.3188 175.504 35.5135 175.504 35.5914V39.719C175.504 39.8358 175.465 39.9527 175.465 40.0695C175.426 40.2642 175.387 40.4589 175.348 40.6925C175.309 40.9262 175.27 41.1598 175.27 41.3935C175.27 41.6271 175.231 41.8218 175.192 41.9386C175.036 42.7564 174.764 43.5352 174.335 44.275C173.907 44.9759 173.479 45.6769 172.972 46.3778C172.778 46.6504 172.505 46.884 172.233 47.0398C171.96 47.2345 171.687 47.3902 171.415 47.546C171.376 47.5849 171.259 47.6239 171.142 47.7018L170.792 47.8965L170.48 48.0522C170.441 48.0912 170.363 48.1301 170.325 48.1301C170.169 48.169 170.013 48.2469 169.857 48.2859C169.74 48.3248 169.585 48.3637 169.429 48.3637H165.846C165.418 48.3637 164.99 48.2469 164.6 48.0133C164.172 47.7796 163.822 47.5849 163.51 47.3902C162.77 46.884 162.147 46.261 161.641 45.5211C161.135 44.8202 160.745 44.0414 160.395 43.2236C160.2 42.8342 160.083 42.367 160.005 41.9386C159.927 41.4713 159.85 41.0041 159.811 40.5368C159.772 40.0695 159.733 39.5633 159.733 39.096C159.733 38.6287 159.733 38.1614 159.733 37.7331L159.694 35.825ZM164.522 36.8375C164.522 36.9153 164.522 37.0322 164.522 37.2269C164.522 37.4216 164.522 37.6163 164.561 37.811C164.6 38.0057 164.561 38.2004 164.6 38.3951C164.639 38.5898 164.6 38.7066 164.6 38.7845C164.639 38.9013 164.678 39.057 164.678 39.1739L164.795 39.9137C164.834 40.1863 164.873 40.4589 164.912 40.7315C164.951 41.0041 164.99 41.1988 165.029 41.3545C165.107 41.8218 165.262 42.2891 165.457 42.7174C165.652 43.1458 166.002 43.5352 166.392 43.7688C166.586 43.9246 166.742 44.0024 166.898 44.1193C167.092 44.1971 167.287 44.275 167.482 44.2361C167.793 44.2361 168.105 44.1582 168.416 44.0414C168.728 43.9246 169.001 43.7299 169.273 43.5352C169.546 43.3405 169.818 43.1068 170.052 42.8732C170.286 42.6395 170.519 42.4059 170.714 42.1723C170.714 42.1723 170.753 42.1333 170.792 42.0944C170.792 42.0554 170.831 42.0165 170.831 41.9776C170.986 41.5492 171.064 41.0819 171.181 40.6147C171.259 40.1474 171.298 39.6801 171.298 39.2517C171.298 38.1225 171.259 37.0322 171.181 35.9418C171.103 34.8515 170.909 33.7612 170.636 32.7098C170.597 32.6319 170.597 32.593 170.558 32.5151C170.558 32.4762 170.519 32.3983 170.48 32.3593C170.325 32.0868 170.13 31.8142 169.896 31.5416C169.701 31.3469 169.429 31.0743 169.156 30.7628L169.039 30.7238C169.001 30.6849 168.962 30.6849 168.923 30.6849C168.767 30.646 168.611 30.607 168.455 30.5681C168.378 30.5681 168.183 30.5681 167.91 30.5681C167.638 30.5681 167.365 30.607 167.092 30.6849C166.82 30.7628 166.586 30.9185 166.43 31.1522C166.353 31.2301 166.275 31.3469 166.197 31.4248C166.08 31.5805 166.002 31.7363 165.885 31.8921C165.769 32.0478 165.652 32.2425 165.535 32.3593L165.301 32.6709C165.184 32.8266 165.107 33.0213 165.029 33.216C164.951 33.4497 164.912 33.6444 164.834 33.878C164.756 34.1116 164.717 34.3453 164.678 34.5789C164.639 34.8126 164.6 35.0073 164.6 35.202C164.6 35.2798 164.6 35.3967 164.6 35.5524C164.6 35.7082 164.6 35.8639 164.561 36.0197C164.522 36.1755 164.561 36.3312 164.522 36.487C164.483 36.6428 164.522 36.7985 164.522 36.8375Z" fill="black"/>
</svg>
